{
  "abbrev@1.1.1": {
    "licenses": "ISC",
    "repository": "https://github.com/isaacs/abbrev-js",
    "publisher": "Isaac Z. Schlueter",
    "email": "i@izs.me",
    "path": "E:\\Desktop\\Lab8\\node_modules\\abbrev",
    "licenseFile": "E:\\Desktop\\Lab8\\node_modules\\abbrev\\LICENSE"
  },
  "ajv@6.12.6": {
    "licenses": "MIT",
    "repository": "https://github.com/ajv-validator/ajv",
    "publisher": "Evgeny Poberezkin",
    "path": "E:\\Desktop\\Lab8\\node_modules\\ajv",
    "licenseFile": "E:\\Desktop\\Lab8\\node_modules\\ajv\\LICENSE"
  },
  "ansi-colors@3.2.3": {
    "licenses": "MIT",
    "repository": "https://github.com/doowb/ansi-colors",
    "publisher": "Brian Woodward",
    "url": "https://github.com/doowb",
    "path": "E:\\Desktop\\Lab8\\node_modules\\ansi-colors",
    "licenseFile": "E:\\Desktop\\Lab8\\node_modules\\ansi-colors\\LICENSE"
  },
  "ansi-regex@3.0.0": {
    "licenses": "MIT",
    "repository": "https://github.com/chalk/ansi-regex",
    "publisher": "Sindre Sorhus",
    "email": "sindresorhus@gmail.com",
    "url": "sindresorhus.com",
    "path": "E:\\Desktop\\Lab8\\node_modules\\ansi-regex",
    "licenseFile": "E:\\Desktop\\Lab8\\node_modules\\ansi-regex\\license"
  },
  "ansi-regex@4.1.0": {
    "licenses": "MIT",
    "repository": "https://github.com/chalk/ansi-regex",
    "publisher": "Sindre Sorhus",
    "email": "sindresorhus@gmail.com",
    "url": "sindresorhus.com",
    "path": "E:\\Desktop\\Lab8\\node_modules\\cliui\\node_modules\\ansi-regex",
    "licenseFile": "E:\\Desktop\\Lab8\\node_modules\\cliui\\node_modules\\ansi-regex\\license"
  },
  "ansi-styles@3.2.1": {
    "licenses": "MIT",
    "repository": "https://github.com/chalk/ansi-styles",
    "publisher": "Sindre Sorhus",
    "email": "sindresorhus@gmail.com",
    "url": "sindresorhus.com",
    "path": "E:\\Desktop\\Lab8\\node_modules\\ansi-styles",
    "licenseFile": "E:\\Desktop\\Lab8\\node_modules\\ansi-styles\\license"
  },
  "anymatch@3.1.2": {
    "licenses": "ISC",
    "repository": "https://github.com/micromatch/anymatch",
    "publisher": "Elan Shanker",
    "url": "https://github.com/es128",
    "path": "E:\\Desktop\\Lab8\\node_modules\\anymatch",
    "licenseFile": "E:\\Desktop\\Lab8\\node_modules\\anymatch\\LICENSE"
  },
  "argparse@1.0.10": {
    "licenses": "MIT",
    "repository": "https://github.com/nodeca/argparse",
    "path": "E:\\Desktop\\Lab8\\node_modules\\argparse",
    "licenseFile": "E:\\Desktop\\Lab8\\node_modules\\argparse\\LICENSE"
  },
  "array-find-index@1.0.2": {
    "licenses": "MIT",
    "repository": "https://github.com/sindresorhus/array-find-index",
    "publisher": "Sindre Sorhus",
    "email": "sindresorhus@gmail.com",
    "url": "sindresorhus.com",
    "path": "E:\\Desktop\\Lab8\\node_modules\\array-find-index",
    "licenseFile": "E:\\Desktop\\Lab8\\node_modules\\array-find-index\\license"
  },
  "asap@2.0.6": {
    "licenses": "MIT",
    "repository": "https://github.com/kriskowal/asap",
    "path": "E:\\Desktop\\Lab8\\node_modules\\asap",
    "licenseFile": "E:\\Desktop\\Lab8\\node_modules\\asap\\LICENSE.md"
  },
  "asn1@0.2.6": {
    "licenses": "MIT",
    "repository": "https://github.com/joyent/node-asn1",
    "publisher": "Joyent",
    "url": "joyent.com",
    "path": "E:\\Desktop\\Lab8\\node_modules\\asn1",
    "licenseFile": "E:\\Desktop\\Lab8\\node_modules\\asn1\\LICENSE"
  },
  "assert-plus@1.0.0": {
    "licenses": "MIT",
    "repository": "https://github.com/mcavage/node-assert-plus",
    "publisher": "Mark Cavage",
    "email": "mcavage@gmail.com",
    "path": "E:\\Desktop\\Lab8\\node_modules\\assert-plus",
    "licenseFile": "E:\\Desktop\\Lab8\\node_modules\\assert-plus\\README.md"
  },
  "asynckit@0.4.0": {
    "licenses": "MIT",
    "repository": "https://github.com/alexindigo/asynckit",
    "publisher": "Alex Indigo",
    "email": "iam@alexindigo.com",
    "path": "E:\\Desktop\\Lab8\\node_modules\\asynckit",
    "licenseFile": "E:\\Desktop\\Lab8\\node_modules\\asynckit\\LICENSE"
  },
  "aws-sign2@0.7.0": {
    "licenses": "Apache-2.0",
    "repository": "https://github.com/mikeal/aws-sign",
    "publisher": "Mikeal Rogers",
    "email": "mikeal.rogers@gmail.com",
    "url": "http://www.futurealoof.com",
    "path": "E:\\Desktop\\Lab8\\node_modules\\aws-sign2",
    "licenseFile": "E:\\Desktop\\Lab8\\node_modules\\aws-sign2\\LICENSE"
  },
  "aws4@1.11.0": {
    "licenses": "MIT",
    "repository": "https://github.com/mhart/aws4",
    "publisher": "Michael Hart",
    "email": "michael.hart.au@gmail.com",
    "url": "https://github.com/mhart",
    "path": "E:\\Desktop\\Lab8\\node_modules\\aws4",
    "licenseFile": "E:\\Desktop\\Lab8\\node_modules\\aws4\\LICENSE"
  },
  "balanced-match@1.0.2": {
    "licenses": "MIT",
    "repository": "https://github.com/juliangruber/balanced-match",
    "publisher": "Julian Gruber",
    "email": "mail@juliangruber.com",
    "url": "http://juliangruber.com",
    "path": "E:\\Desktop\\Lab8\\node_modules\\balanced-match",
    "licenseFile": "E:\\Desktop\\Lab8\\node_modules\\balanced-match\\LICENSE.md"
  },
  "bcrypt-pbkdf@1.0.2": {
    "licenses": "BSD-3-Clause",
    "repository": "https://github.com/joyent/node-bcrypt-pbkdf",
    "path": "E:\\Desktop\\Lab8\\node_modules\\bcrypt-pbkdf",
    "licenseFile": "E:\\Desktop\\Lab8\\node_modules\\bcrypt-pbkdf\\LICENSE"
  },
  "binary-extensions@2.2.0": {
    "licenses": "MIT",
    "repository": "https://github.com/sindresorhus/binary-extensions",
    "publisher": "Sindre Sorhus",
    "email": "sindresorhus@gmail.com",
    "url": "sindresorhus.com",
    "path": "E:\\Desktop\\Lab8\\node_modules\\binary-extensions",
    "licenseFile": "E:\\Desktop\\Lab8\\node_modules\\binary-extensions\\license"
  },
  "bl@2.2.0": {
    "licenses": "MIT",
    "repository": "https://github.com/rvagg/bl",
    "path": "E:\\Desktop\\Lab8\\node_modules\\bl",
    "licenseFile": "E:\\Desktop\\Lab8\\node_modules\\bl\\LICENSE.md"
  },
  "bluebird@3.5.1": {
    "licenses": "MIT",
    "repository": "https://github.com/petkaantonov/bluebird",
    "publisher": "Petka Antonov",
    "email": "petka_antonov@hotmail.com",
    "url": "http://github.com/petkaantonov/",
    "path": "E:\\Desktop\\Lab8\\node_modules\\bluebird",
    "licenseFile": "E:\\Desktop\\Lab8\\node_modules\\bluebird\\LICENSE"
  },
  "brace-expansion@1.1.11": {
    "licenses": "MIT",
    "repository": "https://github.com/juliangruber/brace-expansion",
    "publisher": "Julian Gruber",
    "email": "mail@juliangruber.com",
    "url": "http://juliangruber.com",
    "path": "E:\\Desktop\\Lab8\\node_modules\\brace-expansion",
    "licenseFile": "E:\\Desktop\\Lab8\\node_modules\\brace-expansion\\LICENSE"
  },
  "braces@3.0.2": {
    "licenses": "MIT",
    "repository": "https://github.com/micromatch/braces",
    "publisher": "Jon Schlinkert",
    "url": "https://github.com/jonschlinkert",
    "path": "E:\\Desktop\\Lab8\\node_modules\\braces",
    "licenseFile": "E:\\Desktop\\Lab8\\node_modules\\braces\\LICENSE"
  },
  "browser-stdout@1.3.1": {
    "licenses": "ISC",
    "repository": "https://github.com/kumavis/browser-stdout",
    "publisher": "kumavis",
    "path": "E:\\Desktop\\Lab8\\node_modules\\browser-stdout",
    "licenseFile": "E:\\Desktop\\Lab8\\node_modules\\browser-stdout\\LICENSE"
  },
  "bson@1.1.4": {
    "licenses": "Apache-2.0",
    "repository": "https://github.com/mongodb/js-bson",
    "publisher": "Christian Amor Kvalheim",
    "email": "christkv@gmail.com",
    "path": "E:\\Desktop\\Lab8\\node_modules\\bson",
    "licenseFile": "E:\\Desktop\\Lab8\\node_modules\\bson\\LICENSE.md"
  },
  "call-bind@1.0.2": {
    "licenses": "MIT",
    "repository": "https://github.com/ljharb/call-bind",
    "publisher": "Jordan Harband",
    "email": "ljharb@gmail.com",
    "path": "E:\\Desktop\\Lab8\\node_modules\\call-bind",
    "licenseFile": "E:\\Desktop\\Lab8\\node_modules\\call-bind\\LICENSE"
  },
  "camelcase@5.3.1": {
    "licenses": "MIT",
    "repository": "https://github.com/sindresorhus/camelcase",
    "publisher": "Sindre Sorhus",
    "email": "sindresorhus@gmail.com",
    "url": "sindresorhus.com",
    "path": "E:\\Desktop\\Lab8\\node_modules\\camelcase",
    "licenseFile": "E:\\Desktop\\Lab8\\node_modules\\camelcase\\license"
  },
  "caseless@0.12.0": {
    "licenses": "Apache-2.0",
    "repository": "https://github.com/mikeal/caseless",
    "publisher": "Mikeal Rogers",
    "email": "mikeal.rogers@gmail.com",
    "path": "E:\\Desktop\\Lab8\\node_modules\\caseless",
    "licenseFile": "E:\\Desktop\\Lab8\\node_modules\\caseless\\LICENSE"
  },
  "chalk@2.4.2": {
    "licenses": "MIT",
    "repository": "https://github.com/chalk/chalk",
    "path": "E:\\Desktop\\Lab8\\node_modules\\chalk",
    "licenseFile": "E:\\Desktop\\Lab8\\node_modules\\chalk\\license"
  },
  "chokidar@3.3.0": {
    "licenses": "MIT",
    "repository": "https://github.com/paulmillr/chokidar",
    "publisher": "Paul Miller",
    "url": "https://paulmillr.com",
    "path": "E:\\Desktop\\Lab8\\node_modules\\chokidar",
    "licenseFile": "E:\\Desktop\\Lab8\\node_modules\\chokidar\\LICENSE"
  },
  "cliui@5.0.0": {
    "licenses": "ISC",
    "repository": "https://github.com/yargs/cliui",
    "publisher": "Ben Coe",
    "email": "ben@npmjs.com",
    "path": "E:\\Desktop\\Lab8\\node_modules\\cliui",
    "licenseFile": "E:\\Desktop\\Lab8\\node_modules\\cliui\\LICENSE.txt"
  },
  "color-convert@1.9.3": {
    "licenses": "MIT",
    "repository": "https://github.com/Qix-/color-convert",
    "publisher": "Heather Arthur",
    "email": "fayearthur@gmail.com",
    "path": "E:\\Desktop\\Lab8\\node_modules\\color-convert",
    "licenseFile": "E:\\Desktop\\Lab8\\node_modules\\color-convert\\LICENSE"
  },
  "color-name@1.1.3": {
    "licenses": "MIT",
    "repository": "https://github.com/dfcreative/color-name",
    "publisher": "DY",
    "email": "dfcreative@gmail.com",
    "path": "E:\\Desktop\\Lab8\\node_modules\\color-name",
    "licenseFile": "E:\\Desktop\\Lab8\\node_modules\\color-name\\LICENSE"
  },
  "combined-stream@1.0.8": {
    "licenses": "MIT",
    "repository": "https://github.com/felixge/node-combined-stream",
    "publisher": "Felix Geisend├╢rfer",
    "email": "felix@debuggable.com",
    "url": "http://debuggable.com/",
    "path": "E:\\Desktop\\Lab8\\node_modules\\combined-stream",
    "licenseFile": "E:\\Desktop\\Lab8\\node_modules\\combined-stream\\License"
  },
  "concat-map@0.0.1": {
    "licenses": "MIT",
    "repository": "https://github.com/substack/node-concat-map",
    "publisher": "James Halliday",
    "email": "mail@substack.net",
    "url": "http://substack.net",
    "path": "E:\\Desktop\\Lab8\\node_modules\\concat-map",
    "licenseFile": "E:\\Desktop\\Lab8\\node_modules\\concat-map\\LICENSE"
  },
  "core-util-is@1.0.2": {
    "licenses": "MIT",
    "repository": "https://github.com/isaacs/core-util-is",
    "publisher": "Isaac Z. Schlueter",
    "email": "i@izs.me",
    "url": "http://blog.izs.me/",
    "path": "E:\\Desktop\\Lab8\\node_modules\\core-util-is",
    "licenseFile": "E:\\Desktop\\Lab8\\node_modules\\core-util-is\\LICENSE"
  },
  "dashdash@1.14.1": {
    "licenses": "MIT",
    "repository": "https://github.com/trentm/node-dashdash",
    "publisher": "Trent Mick",
    "email": "trentm@gmail.com",
    "url": "http://trentm.com",
    "path": "E:\\Desktop\\Lab8\\node_modules\\dashdash",
    "licenseFile": "E:\\Desktop\\Lab8\\node_modules\\dashdash\\LICENSE.txt"
  },
  "debug@3.1.0": {
    "licenses": "MIT",
    "repository": "https://github.com/visionmedia/debug",
    "publisher": "TJ Holowaychuk",
    "email": "tj@vision-media.ca",
    "path": "E:\\Desktop\\Lab8\\node_modules\\mquery\\node_modules\\debug",
    "licenseFile": "E:\\Desktop\\Lab8\\node_modules\\mquery\\node_modules\\debug\\LICENSE"
  },
  "debug@3.2.6": {
    "licenses": "MIT",
    "repository": "https://github.com/visionmedia/debug",
    "publisher": "TJ Holowaychuk",
    "email": "tj@vision-media.ca",
    "path": "E:\\Desktop\\Lab8\\node_modules\\debug",
    "licenseFile": "E:\\Desktop\\Lab8\\node_modules\\debug\\LICENSE"
  },
  "debuglog@1.0.1": {
    "licenses": "MIT",
    "repository": "https://github.com/sam-github/node-debuglog",
    "publisher": "Sam Roberts",
    "email": "sam@strongloop.com",
    "path": "E:\\Desktop\\Lab8\\node_modules\\debuglog",
    "licenseFile": "E:\\Desktop\\Lab8\\node_modules\\debuglog\\LICENSE"
  },
  "decamelize@1.2.0": {
    "licenses": "MIT",
    "repository": "https://github.com/sindresorhus/decamelize",
    "publisher": "Sindre Sorhus",
    "email": "sindresorhus@gmail.com",
    "url": "sindresorhus.com",
    "path": "E:\\Desktop\\Lab8\\node_modules\\decamelize",
    "licenseFile": "E:\\Desktop\\Lab8\\node_modules\\decamelize\\license"
  },
  "define-properties@1.1.3": {
    "licenses": "MIT",
    "repository": "https://github.com/ljharb/define-properties",
    "publisher": "Jordan Harband",
    "path": "E:\\Desktop\\Lab8\\node_modules\\define-properties",
    "licenseFile": "E:\\Desktop\\Lab8\\node_modules\\define-properties\\LICENSE"
  },
  "delayed-stream@1.0.0": {
    "licenses": "MIT",
    "repository": "https://github.com/felixge/node-delayed-stream",
    "publisher": "Felix Geisend├╢rfer",
    "email": "felix@debuggable.com",
    "url": "http://debuggable.com/",
    "path": "E:\\Desktop\\Lab8\\node_modules\\delayed-stream",
    "licenseFile": "E:\\Desktop\\Lab8\\node_modules\\delayed-stream\\License"
  },
  "denque@1.4.1": {
    "licenses": "Apache-2.0",
    "repository": "https://github.com/invertase/denque",
    "publisher": "Invertase",
    "email": "oss@invertase.io",
    "url": "http://github.com/invertase/",
    "path": "E:\\Desktop\\Lab8\\node_modules\\denque",
    "licenseFile": "E:\\Desktop\\Lab8\\node_modules\\denque\\LICENSE"
  },
  "dezalgo@1.0.4": {
    "licenses": "ISC",
    "repository": "https://github.com/npm/dezalgo",
    "publisher": "Isaac Z. Schlueter",
    "email": "i@izs.me",
    "url": "http://blog.izs.me/",
    "path": "E:\\Desktop\\Lab8\\node_modules\\dezalgo",
    "licenseFile": "E:\\Desktop\\Lab8\\node_modules\\dezalgo\\LICENSE"
  },
  "diff@3.5.0": {
    "licenses": "BSD-3-Clause",
    "repository": "https://github.com/kpdecker/jsdiff",
    "path": "E:\\Desktop\\Lab8\\node_modules\\diff",
    "licenseFile": "E:\\Desktop\\Lab8\\node_modules\\diff\\LICENSE"
  },
  "ecc-jsbn@0.1.2": {
    "licenses": "MIT",
    "repository": "https://github.com/quartzjer/ecc-jsbn",
    "publisher": "Jeremie Miller",
    "email": "jeremie@jabber.org",
    "url": "http://jeremie.com/",
    "path": "E:\\Desktop\\Lab8\\node_modules\\ecc-jsbn",
    "licenseFile": "E:\\Desktop\\Lab8\\node_modules\\ecc-jsbn\\LICENSE"
  },
  "emoji-regex@7.0.3": {
    "licenses": "MIT",
    "repository": "https://github.com/mathiasbynens/emoji-regex",
    "publisher": "Mathias Bynens",
    "url": "https://mathiasbynens.be/",
    "path": "E:\\Desktop\\Lab8\\node_modules\\emoji-regex",
    "licenseFile": "E:\\Desktop\\Lab8\\node_modules\\emoji-regex\\LICENSE-MIT.txt"
  },
  "es-abstract@1.18.0": {
    "licenses": "MIT",
    "repository": "https://github.com/ljharb/es-abstract",
    "publisher": "Jordan Harband",
    "email": "ljharb@gmail.com",
    "url": "http://ljharb.codes",
    "path": "E:\\Desktop\\Lab8\\node_modules\\es-abstract",
    "licenseFile": "E:\\Desktop\\Lab8\\node_modules\\es-abstract\\LICENSE"
  },
  "es-to-primitive@1.2.1": {
    "licenses": "MIT",
    "repository": "https://github.com/ljharb/es-to-primitive",
    "publisher": "Jordan Harband",
    "email": "ljharb@gmail.com",
    "path": "E:\\Desktop\\Lab8\\node_modules\\es-to-primitive",
    "licenseFile": "E:\\Desktop\\Lab8\\node_modules\\es-to-primitive\\LICENSE"
  },
  "escape-string-regexp@1.0.5": {
    "licenses": "MIT",
    "repository": "https://github.com/sindresorhus/escape-string-regexp",
    "publisher": "Sindre Sorhus",
    "email": "sindresorhus@gmail.com",
    "url": "sindresorhus.com",
    "path": "E:\\Desktop\\Lab8\\node_modules\\escape-string-regexp",
    "licenseFile": "E:\\Desktop\\Lab8\\node_modules\\escape-string-regexp\\license"
  },
  "esprima@4.0.1": {
    "licenses": "BSD-2-Clause",
    "repository": "https://github.com/jquery/esprima",
    "publisher": "Ariya Hidayat",
    "email": "ariya.hidayat@gmail.com",
    "path": "E:\\Desktop\\Lab8\\node_modules\\esprima",
    "licenseFile": "E:\\Desktop\\Lab8\\node_modules\\esprima\\LICENSE.BSD"
  },
  "extend@3.0.2": {
    "licenses": "MIT",
    "repository": "https://github.com/justmoon/node-extend",
    "publisher": "Stefan Thomas",
    "email": "justmoon@members.fsf.org",
    "url": "http://www.justmoon.net",
    "path": "E:\\Desktop\\Lab8\\node_modules\\extend",
    "licenseFile": "E:\\Desktop\\Lab8\\node_modules\\extend\\LICENSE"
  },
  "extsprintf@1.3.0": {
    "licenses": "MIT",
    "repository": "https://github.com/davepacheco/node-extsprintf",
    "path": "E:\\Desktop\\Lab8\\node_modules\\extsprintf",
    "licenseFile": "E:\\Desktop\\Lab8\\node_modules\\extsprintf\\LICENSE"
  },
  "fast-deep-equal@3.1.3": {
    "licenses": "MIT",
    "repository": "https://github.com/epoberezkin/fast-deep-equal",
    "publisher": "Evgeny Poberezkin",
    "path": "E:\\Desktop\\Lab8\\node_modules\\fast-deep-equal",
    "licenseFile": "E:\\Desktop\\Lab8\\node_modules\\fast-deep-equal\\LICENSE"
  },
  "fast-json-stable-stringify@2.1.0": {
    "licenses": "MIT",
    "repository": "https://github.com/epoberezkin/fast-json-stable-stringify",
    "publisher": "James Halliday",
    "email": "mail@substack.net",
    "url": "http://substack.net",
    "path": "E:\\Desktop\\Lab8\\node_modules\\fast-json-stable-stringify",
    "licenseFile": "E:\\Desktop\\Lab8\\node_modules\\fast-json-stable-stringify\\LICENSE"
  },
  "fill-range@7.0.1": {
    "licenses": "MIT",
    "repository": "https://github.com/jonschlinkert/fill-range",
    "publisher": "Jon Schlinkert",
    "url": "https://github.com/jonschlinkert",
    "path": "E:\\Desktop\\Lab8\\node_modules\\fill-range",
    "licenseFile": "E:\\Desktop\\Lab8\\node_modules\\fill-range\\LICENSE"
  },
  "find-up@3.0.0": {
    "licenses": "MIT",
    "repository": "https://github.com/sindresorhus/find-up",
    "publisher": "Sindre Sorhus",
    "email": "sindresorhus@gmail.com",
    "url": "sindresorhus.com",
    "path": "E:\\Desktop\\Lab8\\node_modules\\find-up",
    "licenseFile": "E:\\Desktop\\Lab8\\node_modules\\find-up\\license"
  },
  "flat@4.1.1": {
    "licenses": "BSD-3-Clause",
    "repository": "https://github.com/hughsk/flat",
    "publisher": "Hugh Kennedy",
    "email": "hughskennedy@gmail.com",
    "url": "http://hughskennedy.com",
    "path": "E:\\Desktop\\Lab8\\node_modules\\flat",
    "licenseFile": "E:\\Desktop\\Lab8\\node_modules\\flat\\LICENSE"
  },
  "forever-agent@0.6.1": {
    "licenses": "Apache-2.0",
    "repository": "https://github.com/mikeal/forever-agent",
    "publisher": "Mikeal Rogers",
    "email": "mikeal.rogers@gmail.com",
    "url": "http://www.futurealoof.com",
    "path": "E:\\Desktop\\Lab8\\node_modules\\forever-agent",
    "licenseFile": "E:\\Desktop\\Lab8\\node_modules\\forever-agent\\LICENSE"
  },
  "form-data@2.3.3": {
    "licenses": "MIT",
    "repository": "https://github.com/form-data/form-data",
    "publisher": "Felix Geisend├╢rfer",
    "email": "felix@debuggable.com",
    "url": "http://debuggable.com/",
    "path": "E:\\Desktop\\Lab8\\node_modules\\form-data",
    "licenseFile": "E:\\Desktop\\Lab8\\node_modules\\form-data\\License"
  },
  "fs.realpath@1.0.0": {
    "licenses": "ISC",
    "repository": "https://github.com/isaacs/fs.realpath",
    "publisher": "Isaac Z. Schlueter",
    "email": "i@izs.me",
    "url": "http://blog.izs.me/",
    "path": "E:\\Desktop\\Lab8\\node_modules\\fs.realpath",
    "licenseFile": "E:\\Desktop\\Lab8\\node_modules\\fs.realpath\\LICENSE"
  },
  "function-bind@1.1.1": {
    "licenses": "MIT",
    "repository": "https://github.com/Raynos/function-bind",
    "publisher": "Raynos",
    "email": "raynos2@gmail.com",
    "path": "E:\\Desktop\\Lab8\\node_modules\\function-bind",
    "licenseFile": "E:\\Desktop\\Lab8\\node_modules\\function-bind\\LICENSE"
  },
  "get-caller-file@2.0.5": {
    "licenses": "ISC",
    "repository": "https://github.com/stefanpenner/get-caller-file",
    "publisher": "Stefan Penner",
    "path": "E:\\Desktop\\Lab8\\node_modules\\get-caller-file",
    "licenseFile": "E:\\Desktop\\Lab8\\node_modules\\get-caller-file\\LICENSE.md"
  },
  "get-intrinsic@1.1.1": {
    "licenses": "MIT",
    "repository": "https://github.com/ljharb/get-intrinsic",
    "publisher": "Jordan Harband",
    "email": "ljharb@gmail.com",
    "path": "E:\\Desktop\\Lab8\\node_modules\\get-intrinsic",
    "licenseFile": "E:\\Desktop\\Lab8\\node_modules\\get-intrinsic\\LICENSE"
  },
  "getpass@0.1.7": {
    "licenses": "MIT",
    "repository": "https://github.com/arekinath/node-getpass",
    "publisher": "Alex Wilson",
    "email": "alex.wilson@joyent.com",
    "path": "E:\\Desktop\\Lab8\\node_modules\\getpass",
    "licenseFile": "E:\\Desktop\\Lab8\\node_modules\\getpass\\LICENSE"
  },
  "glob-parent@5.1.2": {
    "licenses": "ISC",
    "repository": "https://github.com/gulpjs/glob-parent",
    "publisher": "Gulp Team",
    "email": "team@gulpjs.com",
    "url": "https://gulpjs.com/",
    "path": "E:\\Desktop\\Lab8\\node_modules\\glob-parent",
    "licenseFile": "E:\\Desktop\\Lab8\\node_modules\\glob-parent\\LICENSE"
  },
  "glob@7.1.3": {
    "licenses": "ISC",
    "repository": "https://github.com/isaacs/node-glob",
    "publisher": "Isaac Z. Schlueter",
    "email": "i@izs.me",
    "url": "http://blog.izs.me/",
    "path": "E:\\Desktop\\Lab8\\node_modules\\glob",
    "licenseFile": "E:\\Desktop\\Lab8\\node_modules\\glob\\LICENSE"
  },
  "graceful-fs@4.2.11": {
    "licenses": "ISC",
    "repository": "https://github.com/isaacs/node-graceful-fs",
    "path": "E:\\Desktop\\Lab8\\node_modules\\graceful-fs",
    "licenseFile": "E:\\Desktop\\Lab8\\node_modules\\graceful-fs\\LICENSE"
  },
  "growl@1.10.5": {
    "licenses": "MIT",
    "repository": "https://github.com/tj/node-growl",
    "publisher": "TJ Holowaychuk",
    "email": "tj@vision-media.ca",
    "path": "E:\\Desktop\\Lab8\\node_modules\\growl",
    "licenseFile": "E:\\Desktop\\Lab8\\node_modules\\growl\\Readme.md"
  },
  "har-schema@2.0.0": {
    "licenses": "ISC",
    "repository": "https://github.com/ahmadnassri/har-schema",
    "publisher": "Ahmad Nassri",
    "email": "ahmad@ahmadnassri.com",
    "url": "https://www.ahmadnassri.com/",
    "path": "E:\\Desktop\\Lab8\\node_modules\\har-schema",
    "licenseFile": "E:\\Desktop\\Lab8\\node_modules\\har-schema\\LICENSE"
  },
  "har-validator@5.1.5": {
    "licenses": "MIT",
    "repository": "https://github.com/ahmadnassri/node-har-validator",
    "publisher": "Ahmad Nassri",
    "email": "ahmad@ahmadnassri.com",
    "url": "https://www.ahmadnassri.com/",
    "path": "E:\\Desktop\\Lab8\\node_modules\\har-validator",
    "licenseFile": "E:\\Desktop\\Lab8\\node_modules\\har-validator\\LICENSE"
  },
  "has-bigints@1.0.1": {
    "licenses": "MIT",
    "repository": "https://github.com/ljharb/has-bigints",
    "publisher": "Jordan Harband",
    "email": "ljharb@gmail.com",
    "path": "E:\\Desktop\\Lab8\\node_modules\\has-bigints",
    "licenseFile": "E:\\Desktop\\Lab8\\node_modules\\has-bigints\\LICENSE"
  },
  "has-flag@3.0.0": {
    "licenses": "MIT",
    "repository": "https://github.com/sindresorhus/has-flag",
    "publisher": "Sindre Sorhus",
    "email": "sindresorhus@gmail.com",
    "url": "sindresorhus.com",
    "path": "E:\\Desktop\\Lab8\\node_modules\\has-flag",
    "licenseFile": "E:\\Desktop\\Lab8\\node_modules\\has-flag\\license"
  },
  "has-symbols@1.0.2": {
    "licenses": "MIT",
    "repository": "https://github.com/inspect-js/has-symbols",
    "publisher": "Jordan Harband",
    "email": "ljharb@gmail.com",
    "url": "http://ljharb.codes",
    "path": "E:\\Desktop\\Lab8\\node_modules\\has-symbols",
    "licenseFile": "E:\\Desktop\\Lab8\\node_modules\\has-symbols\\LICENSE"
  },
  "has@1.0.3": {
    "licenses": "MIT",
    "repository": "https://github.com/tarruda/has",
    "publisher": "Thiago de Arruda",
    "email": "tpadilha84@gmail.com",
    "path": "E:\\Desktop\\Lab8\\node_modules\\has",
    "licenseFile": "E:\\Desktop\\Lab8\\node_modules\\has\\LICENSE-MIT"
  },
  "he@1.2.0": {
    "licenses": "MIT",
    "repository": "https://github.com/mathiasbynens/he",
    "publisher": "Mathias Bynens",
    "url": "https://mathiasbynens.be/",
    "path": "E:\\Desktop\\Lab8\\node_modules\\he",
    "licenseFile": "E:\\Desktop\\Lab8\\node_modules\\he\\LICENSE-MIT.txt"
  },
  "hosted-git-info@2.8.9": {
    "licenses": "ISC",
    "repository": "https://github.com/npm/hosted-git-info",
    "publisher": "Rebecca Turner",
    "email": "me@re-becca.org",
    "url": "http://re-becca.org",
    "path": "E:\\Desktop\\Lab8\\node_modules\\hosted-git-info",
    "licenseFile": "E:\\Desktop\\Lab8\\node_modules\\hosted-git-info\\LICENSE"
  },
  "http-signature@1.2.0": {
    "licenses": "MIT",
    "repository": "https://github.com/joyent/node-http-signature",
    "publisher": "Joyent, Inc",
    "path": "E:\\Desktop\\Lab8\\node_modules\\http-signature",
    "licenseFile": "E:\\Desktop\\Lab8\\node_modules\\http-signature\\LICENSE"
  },
  "inflight@1.0.6": {
    "licenses": "ISC",
    "repository": "https://github.com/npm/inflight",
    "publisher": "Isaac Z. Schlueter",
    "email": "i@izs.me",
    "url": "http://blog.izs.me/",
    "path": "E:\\Desktop\\Lab8\\node_modules\\inflight",
    "licenseFile": "E:\\Desktop\\Lab8\\node_modules\\inflight\\LICENSE"
  },
  "inherits@2.0.4": {
    "licenses": "ISC",
    "repository": "https://github.com/isaacs/inherits",
    "path": "E:\\Desktop\\Lab8\\node_modules\\inherits",
    "licenseFile": "E:\\Desktop\\Lab8\\node_modules\\inherits\\LICENSE"
  },
  "is-bigint@1.0.2": {
    "licenses": "MIT",
    "repository": "https://github.com/inspect-js/is-bigint",
    "publisher": "Jordan Harband",
    "email": "ljharb@gmail.com",
    "path": "E:\\Desktop\\Lab8\\node_modules\\is-bigint",
    "licenseFile": "E:\\Desktop\\Lab8\\node_modules\\is-bigint\\LICENSE"
  },
  "is-binary-path@2.1.0": {
    "licenses": "MIT",
    "repository": "https://github.com/sindresorhus/is-binary-path",
    "publisher": "Sindre Sorhus",
    "email": "sindresorhus@gmail.com",
    "url": "sindresorhus.com",
    "path": "E:\\Desktop\\Lab8\\node_modules\\is-binary-path",
    "licenseFile": "E:\\Desktop\\Lab8\\node_modules\\is-binary-path\\license"
  },
  "is-boolean-object@1.1.1": {
    "licenses": "MIT",
    "repository": "https://github.com/inspect-js/is-boolean-object",
    "publisher": "Jordan Harband",
    "email": "ljharb@gmail.com",
    "path": "E:\\Desktop\\Lab8\\node_modules\\is-boolean-object",
    "licenseFile": "E:\\Desktop\\Lab8\\node_modules\\is-boolean-object\\LICENSE"
  },
  "is-buffer@2.0.5": {
    "licenses": "MIT",
    "repository": "https://github.com/feross/is-buffer",
    "publisher": "Feross Aboukhadijeh",
    "email": "feross@feross.org",
    "url": "https://feross.org",
    "path": "E:\\Desktop\\Lab8\\node_modules\\is-buffer",
    "licenseFile": "E:\\Desktop\\Lab8\\node_modules\\is-buffer\\LICENSE"
  },
  "is-callable@1.2.3": {
    "licenses": "MIT",
    "repository": "https://github.com/ljharb/is-callable",
    "publisher": "Jordan Harband",
    "email": "ljharb@gmail.com",
    "url": "http://ljharb.codes",
    "path": "E:\\Desktop\\Lab8\\node_modules\\is-callable",
    "licenseFile": "E:\\Desktop\\Lab8\\node_modules\\is-callable\\LICENSE"
  },
  "is-core-module@2.13.0": {
    "licenses": "MIT",
    "repository": "https://github.com/inspect-js/is-core-module",
    "publisher": "Jordan Harband",
    "email": "ljharb@gmail.com",
    "path": "E:\\Desktop\\Lab8\\node_modules\\is-core-module",
    "licenseFile": "E:\\Desktop\\Lab8\\node_modules\\is-core-module\\LICENSE"
  },
  "is-date-object@1.0.4": {
    "licenses": "MIT",
    "repository": "https://github.com/inspect-js/is-date-object",
    "publisher": "Jordan Harband",
    "path": "E:\\Desktop\\Lab8\\node_modules\\is-date-object",
    "licenseFile": "E:\\Desktop\\Lab8\\node_modules\\is-date-object\\LICENSE"
  },
  "is-extglob@2.1.1": {
    "licenses": "MIT",
    "repository": "https://github.com/jonschlinkert/is-extglob",
    "publisher": "Jon Schlinkert",
    "url": "https://github.com/jonschlinkert",
    "path": "E:\\Desktop\\Lab8\\node_modules\\is-extglob",
    "licenseFile": "E:\\Desktop\\Lab8\\node_modules\\is-extglob\\LICENSE"
  },
  "is-fullwidth-code-point@2.0.0": {
    "licenses": "MIT",
    "repository": "https://github.com/sindresorhus/is-fullwidth-code-point",
    "publisher": "Sindre Sorhus",
    "email": "sindresorhus@gmail.com",
    "url": "sindresorhus.com",
    "path": "E:\\Desktop\\Lab8\\node_modules\\is-fullwidth-code-point",
    "licenseFile": "E:\\Desktop\\Lab8\\node_modules\\is-fullwidth-code-point\\license"
  },
  "is-glob@4.0.1": {
    "licenses": "MIT",
    "repository": "https://github.com/micromatch/is-glob",
    "publisher": "Jon Schlinkert",
    "url": "https://github.com/jonschlinkert",
    "path": "E:\\Desktop\\Lab8\\node_modules\\is-glob",
    "licenseFile": "E:\\Desktop\\Lab8\\node_modules\\is-glob\\LICENSE"
  },
  "is-negative-zero@2.0.1": {
    "licenses": "MIT",
    "repository": "https://github.com/inspect-js/is-negative-zero",
    "publisher": "Jordan Harband",
    "email": "ljharb@gmail.com",
    "path": "E:\\Desktop\\Lab8\\node_modules\\is-negative-zero",
    "licenseFile": "E:\\Desktop\\Lab8\\node_modules\\is-negative-zero\\LICENSE"
  },
  "is-number-object@1.0.5": {
    "licenses": "MIT",
    "repository": "https://github.com/inspect-js/is-number-object",
    "publisher": "Jordan Harband",
    "email": "ljharb@gmail.com",
    "path": "E:\\Desktop\\Lab8\\node_modules\\is-number-object",
    "licenseFile": "E:\\Desktop\\Lab8\\node_modules\\is-number-object\\LICENSE"
  },
  "is-number@7.0.0": {
    "licenses": "MIT",
    "repository": "https://github.com/jonschlinkert/is-number",
    "publisher": "Jon Schlinkert",
    "url": "https://github.com/jonschlinkert",
    "path": "E:\\Desktop\\Lab8\\node_modules\\is-number",
    "licenseFile": "E:\\Desktop\\Lab8\\node_modules\\is-number\\LICENSE"
  },
  "is-regex@1.1.3": {
    "licenses": "MIT",
    "repository": "https://github.com/inspect-js/is-regex",
    "publisher": "Jordan Harband",
    "email": "ljharb@gmail.com",
    "path": "E:\\Desktop\\Lab8\\node_modules\\is-regex",
    "licenseFile": "E:\\Desktop\\Lab8\\node_modules\\is-regex\\LICENSE"
  },
  "is-string@1.0.6": {
    "licenses": "MIT",
    "repository": "https://github.com/ljharb/is-string",
    "publisher": "Jordan Harband",
    "email": "ljharb@gmail.com",
    "path": "E:\\Desktop\\Lab8\\node_modules\\is-string",
    "licenseFile": "E:\\Desktop\\Lab8\\node_modules\\is-string\\LICENSE"
  },
  "is-symbol@1.0.4": {
    "licenses": "MIT",
    "repository": "https://github.com/inspect-js/is-symbol",
    "publisher": "Jordan Harband",
    "email": "ljharb@gmail.com",
    "path": "E:\\Desktop\\Lab8\\node_modules\\is-symbol",
    "licenseFile": "E:\\Desktop\\Lab8\\node_modules\\is-symbol\\LICENSE"
  },
  "is-typedarray@1.0.0": {
    "licenses": "MIT",
    "repository": "https://github.com/hughsk/is-typedarray",
    "publisher": "Hugh Kennedy",
    "email": "hughskennedy@gmail.com",
    "url": "http://hughsk.io/",
    "path": "E:\\Desktop\\Lab8\\node_modules\\is-typedarray",
    "licenseFile": "E:\\Desktop\\Lab8\\node_modules\\is-typedarray\\LICENSE.md"
  },
  "isarray@1.0.0": {
    "licenses": "MIT",
    "repository": "https://github.com/juliangruber/isarray",
    "publisher": "Julian Gruber",
    "email": "mail@juliangruber.com",
    "url": "http://juliangruber.com",
    "path": "E:\\Desktop\\Lab8\\node_modules\\isarray",
    "licenseFile": "E:\\Desktop\\Lab8\\node_modules\\isarray\\README.md"
  },
  "isexe@2.0.0": {
    "licenses": "ISC",
    "repository": "https://github.com/isaacs/isexe",
    "publisher": "Isaac Z. Schlueter",
    "email": "i@izs.me",
    "url": "http://blog.izs.me/",
    "path": "E:\\Desktop\\Lab8\\node_modules\\isexe",
    "licenseFile": "E:\\Desktop\\Lab8\\node_modules\\isexe\\LICENSE"
  },
  "isstream@0.1.2": {
    "licenses": "MIT",
    "repository": "https://github.com/rvagg/isstream",
    "publisher": "Rod Vagg",
    "email": "rod@vagg.org",
    "path": "E:\\Desktop\\Lab8\\node_modules\\isstream",
    "licenseFile": "E:\\Desktop\\Lab8\\node_modules\\isstream\\LICENSE.md"
  },
  "js-yaml@3.13.1": {
    "licenses": "MIT",
    "repository": "https://github.com/nodeca/js-yaml",
    "publisher": "Vladimir Zapparov",
    "email": "dervus.grim@gmail.com",
    "path": "E:\\Desktop\\Lab8\\node_modules\\js-yaml",
    "licenseFile": "E:\\Desktop\\Lab8\\node_modules\\js-yaml\\LICENSE"
  },
  "jsbn@0.1.1": {
    "licenses": "MIT",
    "repository": "https://github.com/andyperlitch/jsbn",
    "publisher": "Tom Wu",
    "path": "E:\\Desktop\\Lab8\\node_modules\\jsbn",
    "licenseFile": "E:\\Desktop\\Lab8\\node_modules\\jsbn\\LICENSE"
  },
  "json-parse-even-better-errors@2.3.1": {
    "licenses": "MIT",
    "repository": "https://github.com/npm/json-parse-even-better-errors",
    "publisher": "Kat March├ín",
    "email": "kzm@zkat.tech",
    "path": "E:\\Desktop\\Lab8\\node_modules\\json-parse-even-better-errors",
    "licenseFile": "E:\\Desktop\\Lab8\\node_modules\\json-parse-even-better-errors\\LICENSE.md"
  },
  "json-schema-traverse@0.4.1": {
    "licenses": "MIT",
    "repository": "https://github.com/epoberezkin/json-schema-traverse",
    "publisher": "Evgeny Poberezkin",
    "path": "E:\\Desktop\\Lab8\\node_modules\\json-schema-traverse",
    "licenseFile": "E:\\Desktop\\Lab8\\node_modules\\json-schema-traverse\\LICENSE"
  },
  "json-schema@0.4.0": {
    "licenses": "(AFL-2.1 OR BSD-3-Clause)",
    "repository": "https://github.com/kriszyp/json-schema",
    "publisher": "Kris Zyp",
    "path": "E:\\Desktop\\Lab8\\node_modules\\json-schema",
    "licenseFile": "E:\\Desktop\\Lab8\\node_modules\\json-schema\\LICENSE"
  },
  "json-stringify-safe@5.0.1": {
    "licenses": "ISC",
    "repository": "https://github.com/isaacs/json-stringify-safe",
    "publisher": "Isaac Z. Schlueter",
    "email": "i@izs.me",
    "url": "http://blog.izs.me",
    "path": "E:\\Desktop\\Lab8\\node_modules\\json-stringify-safe",
    "licenseFile": "E:\\Desktop\\Lab8\\node_modules\\json-stringify-safe\\LICENSE"
  },
  "jsprim@1.4.2": {
    "licenses": "MIT",
    "repository": "https://github.com/joyent/node-jsprim",
    "path": "E:\\Desktop\\Lab8\\node_modules\\jsprim",
    "licenseFile": "E:\\Desktop\\Lab8\\node_modules\\jsprim\\LICENSE"
  },
  "kareem@2.3.1": {
    "licenses": "Apache-2.0",
    "repository": "https://github.com/vkarpov15/kareem",
    "publisher": "Valeri Karpov",
    "email": "val@karpov.io",
    "path": "E:\\Desktop\\Lab8\\node_modules\\kareem",
    "licenseFile": "E:\\Desktop\\Lab8\\node_modules\\kareem\\LICENSE"
  },
  "license-checker@25.0.1": {
    "licenses": "BSD-3-Clause",
    "repository": "https://github.com/davglass/license-checker",
    "publisher": "Dav Glass",
    "email": "davglass@gmail.com",
    "path": "E:\\Desktop\\Lab8\\node_modules\\license-checker",
    "licenseFile": "E:\\Desktop\\Lab8\\node_modules\\license-checker\\LICENSE"
  },
  "locate-path@3.0.0": {
    "licenses": "MIT",
    "repository": "https://github.com/sindresorhus/locate-path",
    "publisher": "Sindre Sorhus",
    "email": "sindresorhus@gmail.com",
    "url": "sindresorhus.com",
    "path": "E:\\Desktop\\Lab8\\node_modules\\locate-path",
    "licenseFile": "E:\\Desktop\\Lab8\\node_modules\\locate-path\\license"
  },
  "lodash@4.17.21": {
    "licenses": "MIT",
    "repository": "https://github.com/lodash/lodash",
    "publisher": "John-David Dalton",
    "email": "john.david.dalton@gmail.com",
    "path": "E:\\Desktop\\Lab8\\node_modules\\lodash",
    "licenseFile": "E:\\Desktop\\Lab8\\node_modules\\lodash\\LICENSE"
  },
  "log-symbols@3.0.0": {
    "licenses": "MIT",
    "repository": "https://github.com/sindresorhus/log-symbols",
    "publisher": "Sindre Sorhus",
    "email": "sindresorhus@gmail.com",
    "url": "sindresorhus.com",
    "path": "E:\\Desktop\\Lab8\\node_modules\\log-symbols",
    "licenseFile": "E:\\Desktop\\Lab8\\node_modules\\log-symbols\\license"
  },
  "memory-pager@1.5.0": {
    "licenses": "MIT",
    "repository": "https://github.com/mafintosh/memory-pager",
    "publisher": "Mathias Buus",
    "url": "@mafintosh",
    "path": "E:\\Desktop\\Lab8\\node_modules\\memory-pager",
    "licenseFile": "E:\\Desktop\\Lab8\\node_modules\\memory-pager\\LICENSE"
  },
  "mime-db@1.52.0": {
    "licenses": "MIT",
    "repository": "https://github.com/jshttp/mime-db",
    "path": "E:\\Desktop\\Lab8\\node_modules\\mime-db",
    "licenseFile": "E:\\Desktop\\Lab8\\node_modules\\mime-db\\LICENSE"
  },
  "mime-types@2.1.35": {
    "licenses": "MIT",
    "repository": "https://github.com/jshttp/mime-types",
    "path": "E:\\Desktop\\Lab8\\node_modules\\mime-types",
    "licenseFile": "E:\\Desktop\\Lab8\\node_modules\\mime-types\\LICENSE"
  },
  "minimatch@3.0.4": {
    "licenses": "ISC",
    "repository": "https://github.com/isaacs/minimatch",
    "publisher": "Isaac Z. Schlueter",
    "email": "i@izs.me",
    "url": "http://blog.izs.me",
    "path": "E:\\Desktop\\Lab8\\node_modules\\minimatch",
    "licenseFile": "E:\\Desktop\\Lab8\\node_modules\\minimatch\\LICENSE"
  },
  "minimist@1.2.5": {
    "licenses": "MIT",
    "repository": "https://github.com/substack/minimist",
    "publisher": "James Halliday",
    "email": "mail@substack.net",
    "url": "http://substack.net",
    "path": "E:\\Desktop\\Lab8\\node_modules\\minimist",
    "licenseFile": "E:\\Desktop\\Lab8\\node_modules\\minimist\\LICENSE"
  },
  "mkdirp@0.5.5": {
    "licenses": "MIT",
    "repository": "https://github.com/substack/node-mkdirp",
    "publisher": "James Halliday",
    "email": "mail@substack.net",
    "url": "http://substack.net",
    "path": "E:\\Desktop\\Lab8\\node_modules\\mkdirp",
    "licenseFile": "E:\\Desktop\\Lab8\\node_modules\\mkdirp\\LICENSE"
  },
  "mocha@7.2.0": {
    "licenses": "MIT",
    "repository": "https://github.com/mochajs/mocha",
    "publisher": "TJ Holowaychuk",
    "email": "tj@vision-media.ca",
    "path": "E:\\Desktop\\Lab8\\node_modules\\mocha",
    "licenseFile": "E:\\Desktop\\Lab8\\node_modules\\mocha\\LICENSE"
  },
  "mongodb@3.5.7": {
    "licenses": "Apache-2.0",
    "repository": "https://github.com/mongodb/node-mongodb-native",
    "path": "E:\\Desktop\\Lab8\\node_modules\\mongodb",
    "licenseFile": "E:\\Desktop\\Lab8\\node_modules\\mongodb\\LICENSE.md"
  },
  "mongoose-legacy-pluralize@1.0.2": {
    "licenses": "Apache-2.0",
    "repository": "https://github.com/vkarpov15/mongoose-legacy-pluralize",
    "publisher": "Valeri Karpov",
    "email": "val@karpov.io",
    "path": "E:\\Desktop\\Lab8\\node_modules\\mongoose-legacy-pluralize",
    "licenseFile": "E:\\Desktop\\Lab8\\node_modules\\mongoose-legacy-pluralize\\LICENSE"
  },
  "mongoose@5.9.15": {
    "licenses": "MIT",
    "repository": "https://github.com/Automattic/mongoose",
    "publisher": "Guillermo Rauch",
    "email": "guillermo@learnboost.com",
    "path": "E:\\Desktop\\Lab8\\node_modules\\mongoose",
    "licenseFile": "E:\\Desktop\\Lab8\\node_modules\\mongoose\\LICENSE.md"
  },
  "mpath@0.7.0": {
    "licenses": "MIT",
    "repository": "https://github.com/aheckmann/mpath",
    "publisher": "Aaron Heckmann",
    "email": "aaron.heckmann+github@gmail.com",
    "path": "E:\\Desktop\\Lab8\\node_modules\\mpath",
    "licenseFile": "E:\\Desktop\\Lab8\\node_modules\\mpath\\LICENSE"
  },
  "mquery@3.2.2": {
    "licenses": "MIT",
    "repository": "https://github.com/aheckmann/mquery",
    "publisher": "Aaron Heckmann",
    "email": "aaron.heckmann+github@gmail.com",
    "path": "E:\\Desktop\\Lab8\\node_modules\\mquery",
    "licenseFile": "E:\\Desktop\\Lab8\\node_modules\\mquery\\LICENSE"
  },
  "ms@2.0.0": {
    "licenses": "MIT",
    "repository": "https://github.com/zeit/ms",
    "path": "E:\\Desktop\\Lab8\\node_modules\\mquery\\node_modules\\ms",
    "licenseFile": "E:\\Desktop\\Lab8\\node_modules\\mquery\\node_modules\\ms\\license.md"
  },
  "ms@2.1.1": {
    "licenses": "MIT",
    "repository": "https://github.com/zeit/ms",
    "path": "E:\\Desktop\\Lab8\\node_modules\\ms",
    "licenseFile": "E:\\Desktop\\Lab8\\node_modules\\ms\\license.md"
  },
  "ms@2.1.2": {
    "licenses": "MIT",
    "repository": "https://github.com/zeit/ms",
    "path": "E:\\Desktop\\Lab8\\node_modules\\mongoose\\node_modules\\ms",
    "licenseFile": "E:\\Desktop\\Lab8\\node_modules\\mongoose\\node_modules\\ms\\license.md"
  },
  "node-environment-flags@1.0.6": {
    "licenses": "Apache-2.0",
    "repository": "https://github.com/boneskull/node-environment-flags",
    "publisher": "Christopher Hiller",
    "email": "boneskull@boneskull.com",
    "url": "https://boneskull.com/",
    "path": "E:\\Desktop\\Lab8\\node_modules\\node-environment-flags",
    "licenseFile": "E:\\Desktop\\Lab8\\node_modules\\node-environment-flags\\LICENSE"
  },
  "nopt@4.0.3": {
    "licenses": "ISC",
    "repository": "https://github.com/npm/nopt",
    "publisher": "Isaac Z. Schlueter",
    "email": "i@izs.me",
    "url": "http://blog.izs.me/",
    "path": "E:\\Desktop\\Lab8\\node_modules\\nopt",
    "licenseFile": "E:\\Desktop\\Lab8\\node_modules\\nopt\\LICENSE"
  },
  "normalize-package-data@2.5.0": {
    "licenses": "BSD-2-Clause",
    "repository": "https://github.com/npm/normalize-package-data",
    "publisher": "Meryn Stol",
    "email": "merynstol@gmail.com",
    "path": "E:\\Desktop\\Lab8\\node_modules\\normalize-package-data",
    "licenseFile": "E:\\Desktop\\Lab8\\node_modules\\normalize-package-data\\LICENSE"
  },
  "normalize-path@3.0.0": {
    "licenses": "MIT",
    "repository": "https://github.com/jonschlinkert/normalize-path",
    "publisher": "Jon Schlinkert",
    "url": "https://github.com/jonschlinkert",
    "path": "E:\\Desktop\\Lab8\\node_modules\\normalize-path",
    "licenseFile": "E:\\Desktop\\Lab8\\node_modules\\normalize-path\\LICENSE"
  },
  "npm-normalize-package-bin@1.0.1": {
    "licenses": "ISC",
    "repository": "https://github.com/npm/npm-normalize-package-bin",
    "publisher": "Isaac Z. Schlueter",
    "email": "i@izs.me",
    "url": "https://izs.me",
    "path": "E:\\Desktop\\Lab8\\node_modules\\npm-normalize-package-bin",
    "licenseFile": "E:\\Desktop\\Lab8\\node_modules\\npm-normalize-package-bin\\LICENSE"
  },
  "oauth-sign@0.9.0": {
    "licenses": "Apache-2.0",
    "repository": "https://github.com/mikeal/oauth-sign",
    "publisher": "Mikeal Rogers",
    "email": "mikeal.rogers@gmail.com",
    "url": "http://www.futurealoof.com",
    "path": "E:\\Desktop\\Lab8\\node_modules\\oauth-sign",
    "licenseFile": "E:\\Desktop\\Lab8\\node_modules\\oauth-sign\\LICENSE"
  },
  "object-inspect@1.10.3": {
    "licenses": "MIT",
    "repository": "https://github.com/inspect-js/object-inspect",
    "publisher": "James Halliday",
    "email": "mail@substack.net",
    "url": "http://substack.net",
    "path": "E:\\Desktop\\Lab8\\node_modules\\object-inspect",
    "licenseFile": "E:\\Desktop\\Lab8\\node_modules\\object-inspect\\LICENSE"
  },
  "object-keys@1.1.1": {
    "licenses": "MIT",
    "repository": "https://github.com/ljharb/object-keys",
    "publisher": "Jordan Harband",
    "email": "ljharb@gmail.com",
    "url": "http://ljharb.codes",
    "path": "E:\\Desktop\\Lab8\\node_modules\\object-keys",
    "licenseFile": "E:\\Desktop\\Lab8\\node_modules\\object-keys\\LICENSE"
  },
  "object.assign@4.1.0": {
    "licenses": "MIT",
    "repository": "https://github.com/ljharb/object.assign",
    "publisher": "Jordan Harband",
    "path": "E:\\Desktop\\Lab8\\node_modules\\object.assign",
    "licenseFile": "E:\\Desktop\\Lab8\\node_modules\\object.assign\\LICENSE"
  },
  "object.assign@4.1.2": {
    "licenses": "MIT",
    "repository": "https://github.com/ljharb/object.assign",
    "publisher": "Jordan Harband",
    "path": "E:\\Desktop\\Lab8\\node_modules\\es-abstract\\node_modules\\object.assign",
    "licenseFile": "E:\\Desktop\\Lab8\\node_modules\\es-abstract\\node_modules\\object.assign\\LICENSE"
  },
  "object.getownpropertydescriptors@2.1.2": {
    "licenses": "MIT",
    "repository": "https://github.com/es-shims/object.getownpropertydescriptors",
    "publisher": "Jordan Harband",
    "email": "ljharb@gmail.com",
    "path": "E:\\Desktop\\Lab8\\node_modules\\object.getownpropertydescriptors",
    "licenseFile": "E:\\Desktop\\Lab8\\node_modules\\object.getownpropertydescriptors\\LICENSE"
  },
  "once@1.4.0": {
    "licenses": "ISC",
    "repository": "https://github.com/isaacs/once",
    "publisher": "Isaac Z. Schlueter",
    "email": "i@izs.me",
    "url": "http://blog.izs.me/",
    "path": "E:\\Desktop\\Lab8\\node_modules\\once",
    "licenseFile": "E:\\Desktop\\Lab8\\node_modules\\once\\LICENSE"
  },
  "os-homedir@1.0.2": {
    "licenses": "MIT",
    "repository": "https://github.com/sindresorhus/os-homedir",
    "publisher": "Sindre Sorhus",
    "email": "sindresorhus@gmail.com",
    "url": "sindresorhus.com",
    "path": "E:\\Desktop\\Lab8\\node_modules\\os-homedir",
    "licenseFile": "E:\\Desktop\\Lab8\\node_modules\\os-homedir\\license"
  },
  "os-tmpdir@1.0.2": {
    "licenses": "MIT",
    "repository": "https://github.com/sindresorhus/os-tmpdir",
    "publisher": "Sindre Sorhus",
    "email": "sindresorhus@gmail.com",
    "url": "sindresorhus.com",
    "path": "E:\\Desktop\\Lab8\\node_modules\\os-tmpdir",
    "licenseFile": "E:\\Desktop\\Lab8\\node_modules\\os-tmpdir\\license"
  },
  "osenv@0.1.5": {
    "licenses": "ISC",
    "repository": "https://github.com/npm/osenv",
    "publisher": "Isaac Z. Schlueter",
    "email": "i@izs.me",
    "url": "http://blog.izs.me/",
    "path": "E:\\Desktop\\Lab8\\node_modules\\osenv",
    "licenseFile": "E:\\Desktop\\Lab8\\node_modules\\osenv\\LICENSE"
  },
  "p-limit@2.3.0": {
    "licenses": "MIT",
    "repository": "https://github.com/sindresorhus/p-limit",
    "publisher": "Sindre Sorhus",
    "email": "sindresorhus@gmail.com",
    "url": "sindresorhus.com",
    "path": "E:\\Desktop\\Lab8\\node_modules\\p-limit",
    "licenseFile": "E:\\Desktop\\Lab8\\node_modules\\p-limit\\license"
  },
  "p-locate@3.0.0": {
    "licenses": "MIT",
    "repository": "https://github.com/sindresorhus/p-locate",
    "publisher": "Sindre Sorhus",
    "email": "sindresorhus@gmail.com",
    "url": "sindresorhus.com",
    "path": "E:\\Desktop\\Lab8\\node_modules\\p-locate",
    "licenseFile": "E:\\Desktop\\Lab8\\node_modules\\p-locate\\license"
  },
  "p-try@2.2.0": {
    "licenses": "MIT",
    "repository": "https://github.com/sindresorhus/p-try",
    "publisher": "Sindre Sorhus",
    "email": "sindresorhus@gmail.com",
    "url": "sindresorhus.com",
    "path": "E:\\Desktop\\Lab8\\node_modules\\p-try",
    "licenseFile": "E:\\Desktop\\Lab8\\node_modules\\p-try\\license"
  },
  "path-exists@3.0.0": {
    "licenses": "MIT",
    "repository": "https://github.com/sindresorhus/path-exists",
    "publisher": "Sindre Sorhus",
    "email": "sindresorhus@gmail.com",
    "url": "sindresorhus.com",
    "path": "E:\\Desktop\\Lab8\\node_modules\\path-exists",
    "licenseFile": "E:\\Desktop\\Lab8\\node_modules\\path-exists\\license"
  },
  "path-is-absolute@1.0.1": {
    "licenses": "MIT",
    "repository": "https://github.com/sindresorhus/path-is-absolute",
    "publisher": "Sindre Sorhus",
    "email": "sindresorhus@gmail.com",
    "url": "sindresorhus.com",
    "path": "E:\\Desktop\\Lab8\\node_modules\\path-is-absolute",
    "licenseFile": "E:\\Desktop\\Lab8\\node_modules\\path-is-absolute\\license"
  },
  "path-parse@1.0.7": {
    "licenses": "MIT",
    "repository": "https://github.com/jbgutierrez/path-parse",
    "publisher": "Javier Blanco",
    "email": "http://jbgutierrez.info",
    "path": "E:\\Desktop\\Lab8\\node_modules\\path-parse",
    "licenseFile": "E:\\Desktop\\Lab8\\node_modules\\path-parse\\LICENSE"
  },
  "performance-now@2.1.0": {
    "licenses": "MIT",
    "repository": "https://github.com/braveg1rl/performance-now",
    "publisher": "Braveg1rl",
    "email": "braveg1rl@outlook.com",
    "path": "E:\\Desktop\\Lab8\\node_modules\\performance-now",
    "licenseFile": "E:\\Desktop\\Lab8\\node_modules\\performance-now\\license.txt"
  },
  "picomatch@2.2.3": {
    "licenses": "MIT",
    "repository": "https://github.com/micromatch/picomatch",
    "publisher": "Jon Schlinkert",
    "url": "https://github.com/jonschlinkert",
    "path": "E:\\Desktop\\Lab8\\node_modules\\picomatch",
    "licenseFile": "E:\\Desktop\\Lab8\\node_modules\\picomatch\\LICENSE"
  },
  "process-nextick-args@2.0.1": {
    "licenses": "MIT",
    "repository": "https://github.com/calvinmetcalf/process-nextick-args",
    "path": "E:\\Desktop\\Lab8\\node_modules\\process-nextick-args",
    "licenseFile": "E:\\Desktop\\Lab8\\node_modules\\process-nextick-args\\license.md"
  },
  "project09@1.0.0": {
    "licenses": "ISC",
    "path": "E:\\Desktop\\Lab8",
    "licenseFile": "E:\\Desktop\\Lab8\\LICENSE"
  },
  "psl@1.9.0": {
    "licenses": "MIT",
    "repository": "https://github.com/lupomontero/psl",
    "publisher": "Lupo Montero",
    "email": "lupomontero@gmail.com",
    "url": "https://lupomontero.com/",
    "path": "E:\\Desktop\\Lab8\\node_modules\\psl",
    "licenseFile": "E:\\Desktop\\Lab8\\node_modules\\psl\\LICENSE"
  },
  "punycode@2.1.1": {
    "licenses": "MIT",
    "repository": "https://github.com/bestiejs/punycode.js",
    "publisher": "Mathias Bynens",
    "url": "https://mathiasbynens.be/",
    "path": "E:\\Desktop\\Lab8\\node_modules\\punycode",
    "licenseFile": "E:\\Desktop\\Lab8\\node_modules\\punycode\\LICENSE-MIT.txt"
  },
  "qs@6.5.3": {
    "licenses": "BSD-3-Clause",
    "repository": "https://github.com/ljharb/qs",
    "path": "E:\\Desktop\\Lab8\\node_modules\\qs",
    "licenseFile": "E:\\Desktop\\Lab8\\node_modules\\qs\\LICENSE.md"
  },
  "read-installed@4.0.3": {
    "licenses": "ISC",
    "repository": "https://github.com/isaacs/read-installed",
    "publisher": "Isaac Z. Schlueter",
    "email": "i@izs.me",
    "url": "http://blog.izs.me/",
    "path": "E:\\Desktop\\Lab8\\node_modules\\read-installed",
    "licenseFile": "E:\\Desktop\\Lab8\\node_modules\\read-installed\\LICENSE"
  },
  "read-package-json@2.1.2": {
    "licenses": "ISC",
    "repository": "https://github.com/npm/read-package-json",
    "publisher": "Isaac Z. Schlueter",
    "email": "i@izs.me",
    "url": "http://blog.izs.me/",
    "path": "E:\\Desktop\\Lab8\\node_modules\\read-package-json",
    "licenseFile": "E:\\Desktop\\Lab8\\node_modules\\read-package-json\\LICENSE"
  },
  "readable-stream@2.3.7": {
    "licenses": "MIT",
    "repository": "https://github.com/nodejs/readable-stream",
    "path": "E:\\Desktop\\Lab8\\node_modules\\readable-stream",
    "licenseFile": "E:\\Desktop\\Lab8\\node_modules\\readable-stream\\LICENSE"
  },
  "readdir-scoped-modules@1.1.0": {
    "licenses": "ISC",
    "repository": "https://github.com/npm/readdir-scoped-modules",
    "publisher": "Isaac Z. Schlueter",
    "email": "i@izs.me",
    "url": "http://blog.izs.me/",
    "path": "E:\\Desktop\\Lab8\\node_modules\\readdir-scoped-modules",
    "licenseFile": "E:\\Desktop\\Lab8\\node_modules\\readdir-scoped-modules\\LICENSE"
  },
  "readdirp@3.2.0": {
    "licenses": "MIT",
    "repository": "https://github.com/paulmillr/readdirp",
    "publisher": "Thorsten Lorenz",
    "email": "thlorenz@gmx.de",
    "url": "thlorenz.com",
    "path": "E:\\Desktop\\Lab8\\node_modules\\readdirp",
    "licenseFile": "E:\\Desktop\\Lab8\\node_modules\\readdirp\\LICENSE"
  },
  "regexp-clone@1.0.0": {
    "licenses": "MIT",
    "repository": "https://github.com/aheckmann/regexp-clone",
    "publisher": "Aaron Heckmann",
    "email": "aaron.heckmann+github@gmail.com",
    "path": "E:\\Desktop\\Lab8\\node_modules\\regexp-clone",
    "licenseFile": "E:\\Desktop\\Lab8\\node_modules\\regexp-clone\\LICENSE"
  },
  "request@2.88.2": {
    "licenses": "Apache-2.0",
    "repository": "https://github.com/request/request",
    "publisher": "Mikeal Rogers",
    "email": "mikeal.rogers@gmail.com",
    "path": "E:\\Desktop\\Lab8\\node_modules\\request",
    "licenseFile": "E:\\Desktop\\Lab8\\node_modules\\request\\LICENSE"
  },
  "require-directory@2.1.1": {
    "licenses": "MIT",
    "repository": "https://github.com/troygoode/node-require-directory",
    "publisher": "Troy Goode",
    "email": "troygoode@gmail.com",
    "url": "http://github.com/troygoode/",
    "path": "E:\\Desktop\\Lab8\\node_modules\\require-directory",
    "licenseFile": "E:\\Desktop\\Lab8\\node_modules\\require-directory\\LICENSE"
  },
  "require-main-filename@2.0.0": {
    "licenses": "ISC",
    "repository": "https://github.com/yargs/require-main-filename",
    "publisher": "Ben Coe",
    "email": "ben@npmjs.com",
    "path": "E:\\Desktop\\Lab8\\node_modules\\require-main-filename",
    "licenseFile": "E:\\Desktop\\Lab8\\node_modules\\require-main-filename\\LICENSE.txt"
  },
  "require_optional@1.0.1": {
    "licenses": "Apache-2.0",
    "repository": "https://github.com/christkv/require_optional",
    "publisher": "Christian Kvalheim Amor",
    "path": "E:\\Desktop\\Lab8\\node_modules\\require_optional",
    "licenseFile": "E:\\Desktop\\Lab8\\node_modules\\require_optional\\LICENSE"
  },
  "resolve-from@2.0.0": {
    "licenses": "MIT",
    "repository": "https://github.com/sindresorhus/resolve-from",
    "publisher": "Sindre Sorhus",
    "email": "sindresorhus@gmail.com",
    "url": "sindresorhus.com",
    "path": "E:\\Desktop\\Lab8\\node_modules\\resolve-from",
    "licenseFile": "E:\\Desktop\\Lab8\\node_modules\\resolve-from\\license"
  },
  "resolve@1.22.4": {
    "licenses": "MIT",
    "repository": "https://github.com/browserify/resolve",
    "publisher": "James Halliday",
    "email": "mail@substack.net",
    "url": "http://substack.net",
    "path": "E:\\Desktop\\Lab8\\node_modules\\resolve",
    "licenseFile": "E:\\Desktop\\Lab8\\node_modules\\resolve\\LICENSE"
  },
  "safe-buffer@5.1.2": {
    "licenses": "MIT",
    "repository": "https://github.com/feross/safe-buffer",
    "publisher": "Feross Aboukhadijeh",
    "email": "feross@feross.org",
    "url": "http://feross.org",
    "path": "E:\\Desktop\\Lab8\\node_modules\\safe-buffer",
    "licenseFile": "E:\\Desktop\\Lab8\\node_modules\\safe-buffer\\LICENSE"
  },
  "safer-buffer@2.1.2": {
    "licenses": "MIT",
    "repository": "https://github.com/ChALkeR/safer-buffer",
    "publisher": "Nikita Skovoroda",
    "email": "chalkerx@gmail.com",
    "url": "https://github.com/ChALkeR",
    "path": "E:\\Desktop\\Lab8\\node_modules\\safer-buffer",
    "licenseFile": "E:\\Desktop\\Lab8\\node_modules\\safer-buffer\\LICENSE"
  },
  "saslprep@1.0.3": {
    "licenses": "MIT",
    "repository": "https://github.com/reklatsmasters/saslprep",
    "publisher": "Dmitry Tsvettsikh",
    "email": "me@reklatsmasters.com",
    "path": "E:\\Desktop\\Lab8\\node_modules\\saslprep",
    "licenseFile": "E:\\Desktop\\Lab8\\node_modules\\saslprep\\LICENSE"
  },
  "semver@5.7.1": {
    "licenses": "ISC",
    "repository": "https://github.com/npm/node-semver",
    "path": "E:\\Desktop\\Lab8\\node_modules\\semver",
    "licenseFile": "E:\\Desktop\\Lab8\\node_modules\\semver\\LICENSE"
  },
  "set-blocking@2.0.0": {
    "licenses": "ISC",
    "repository": "https://github.com/yargs/set-blocking",
    "publisher": "Ben Coe",
    "email": "ben@npmjs.com",
    "path": "E:\\Desktop\\Lab8\\node_modules\\set-blocking",
    "licenseFile": "E:\\Desktop\\Lab8\\node_modules\\set-blocking\\LICENSE.txt"
  },
  "sift@7.0.1": {
    "licenses": "MIT",
    "repository": "https://github.com/crcn/sift.js",
    "publisher": "Craig Condon",
    "email": "craig.j.condon@gmail.com",
    "url": "http://crcn.io",
    "path": "E:\\Desktop\\Lab8\\node_modules\\sift",
    "licenseFile": "E:\\Desktop\\Lab8\\node_modules\\sift\\README.md"
  },
  "sliced@1.0.1": {
    "licenses": "MIT",
    "repository": "https://github.com/aheckmann/sliced",
    "publisher": "Aaron Heckmann",
    "email": "aaron.heckmann+github@gmail.com",
    "path": "E:\\Desktop\\Lab8\\node_modules\\sliced",
    "licenseFile": "E:\\Desktop\\Lab8\\node_modules\\sliced\\LICENSE"
  },
  "slide@1.1.6": {
    "licenses": "ISC",
    "repository": "https://github.com/isaacs/slide-flow-control",
    "publisher": "Isaac Z. Schlueter",
    "email": "i@izs.me",
    "url": "http://blog.izs.me/",
    "path": "E:\\Desktop\\Lab8\\node_modules\\slide",
    "licenseFile": "E:\\Desktop\\Lab8\\node_modules\\slide\\LICENSE"
  },
  "sparse-bitfield@3.0.3": {
    "licenses": "MIT",
    "repository": "https://github.com/mafintosh/sparse-bitfield",
    "publisher": "Mathias Buus",
    "url": "@mafintosh",
    "path": "E:\\Desktop\\Lab8\\node_modules\\sparse-bitfield",
    "licenseFile": "E:\\Desktop\\Lab8\\node_modules\\sparse-bitfield\\LICENSE"
  },
  "spdx-compare@1.0.0": {
    "licenses": "MIT",
    "repository": "https://github.com/kemitchell/spdx-compare.js",
    "publisher": "Kyle E. Mitchell",
    "email": "kyle@kemitchell.com",
    "url": "https://kemitchell.com",
    "path": "E:\\Desktop\\Lab8\\node_modules\\spdx-compare",
    "licenseFile": "E:\\Desktop\\Lab8\\node_modules\\spdx-compare\\LICENSE.md"
  },
  "spdx-correct@3.2.0": {
    "licenses": "Apache-2.0",
    "repository": "https://github.com/jslicense/spdx-correct.js",
    "path": "E:\\Desktop\\Lab8\\node_modules\\spdx-correct",
    "licenseFile": "E:\\Desktop\\Lab8\\node_modules\\spdx-correct\\LICENSE"
  },
  "spdx-exceptions@2.3.0": {
    "licenses": "CC-BY-3.0",
    "repository": "https://github.com/kemitchell/spdx-exceptions.json",
    "publisher": "The Linux Foundation",
    "path": "E:\\Desktop\\Lab8\\node_modules\\spdx-exceptions",
    "licenseFile": "E:\\Desktop\\Lab8\\node_modules\\spdx-exceptions\\README.md"
  },
  "spdx-expression-parse@3.0.1": {
    "licenses": "MIT",
    "repository": "https://github.com/jslicense/spdx-expression-parse.js",
    "publisher": "Kyle E. Mitchell",
    "email": "kyle@kemitchell.com",
    "url": "https://kemitchell.com",
    "path": "E:\\Desktop\\Lab8\\node_modules\\spdx-expression-parse",
    "licenseFile": "E:\\Desktop\\Lab8\\node_modules\\spdx-expression-parse\\LICENSE"
  },
  "spdx-license-ids@3.0.13": {
    "licenses": "CC0-1.0",
    "repository": "https://github.com/jslicense/spdx-license-ids",
    "publisher": "Shinnosuke Watanabe",
    "url": "https://github.com/shinnn",
    "path": "E:\\Desktop\\Lab8\\node_modules\\spdx-license-ids",
    "licenseFile": "E:\\Desktop\\Lab8\\node_modules\\spdx-license-ids\\README.md"
  },
  "spdx-ranges@2.1.1": {
    "licenses": "(MIT AND CC-BY-3.0)",
    "repository": "https://github.com/kemitchell/spdx-ranges.js",
    "publisher": "The Linux Foundation",
    "path": "E:\\Desktop\\Lab8\\node_modules\\spdx-ranges",
    "licenseFile": "E:\\Desktop\\Lab8\\node_modules\\spdx-ranges\\LICENSE.md"
  },
  "spdx-satisfies@4.0.1": {
    "licenses": "MIT",
    "repository": "https://github.com/kemitchell/spdx-satisfies.js",
    "publisher": "Kyle E. Mitchell",
    "email": "kyle@kemitchell.com",
    "url": "https://kemitchell.com",
    "path": "E:\\Desktop\\Lab8\\node_modules\\spdx-satisfies",
    "licenseFile": "E:\\Desktop\\Lab8\\node_modules\\spdx-satisfies\\LICENSE"
  },
  "sprintf-js@1.0.3": {
    "licenses": "BSD-3-Clause",
    "repository": "https://github.com/alexei/sprintf.js",
    "publisher": "Alexandru Marasteanu",
    "email": "hello@alexei.ro",
    "url": "http://alexei.ro/",
    "path": "E:\\Desktop\\Lab8\\node_modules\\sprintf-js",
    "licenseFile": "E:\\Desktop\\Lab8\\node_modules\\sprintf-js\\LICENSE"
  },
  "sshpk@1.17.0": {
    "licenses": "MIT",
    "repository": "https://github.com/joyent/node-sshpk",
    "publisher": "Joyent, Inc",
    "path": "E:\\Desktop\\Lab8\\node_modules\\sshpk",
    "licenseFile": "E:\\Desktop\\Lab8\\node_modules\\sshpk\\LICENSE"
  },
  "string-width@2.1.1": {
    "licenses": "MIT",
    "repository": "https://github.com/sindresorhus/string-width",
    "publisher": "Sindre Sorhus",
    "email": "sindresorhus@gmail.com",
    "url": "sindresorhus.com",
    "path": "E:\\Desktop\\Lab8\\node_modules\\string-width",
    "licenseFile": "E:\\Desktop\\Lab8\\node_modules\\string-width\\license"
  },
  "string-width@3.1.0": {
    "licenses": "MIT",
    "repository": "https://github.com/sindresorhus/string-width",
    "publisher": "Sindre Sorhus",
    "email": "sindresorhus@gmail.com",
    "url": "sindresorhus.com",
    "path": "E:\\Desktop\\Lab8\\node_modules\\cliui\\node_modules\\string-width",
    "licenseFile": "E:\\Desktop\\Lab8\\node_modules\\cliui\\node_modules\\string-width\\license"
  },
  "string.prototype.trimend@1.0.4": {
    "licenses": "MIT",
    "repository": "https://github.com/es-shims/String.prototype.trimEnd",
    "publisher": "Jordan Harband",
    "email": "ljharb@gmail.com",
    "path": "E:\\Desktop\\Lab8\\node_modules\\string.prototype.trimend",
    "licenseFile": "E:\\Desktop\\Lab8\\node_modules\\string.prototype.trimend\\LICENSE"
  },
  "string.prototype.trimstart@1.0.4": {
    "licenses": "MIT",
    "repository": "https://github.com/es-shims/String.prototype.trimStart",
    "publisher": "Jordan Harband",
    "email": "ljharb@gmail.com",
    "path": "E:\\Desktop\\Lab8\\node_modules\\string.prototype.trimstart",
    "licenseFile": "E:\\Desktop\\Lab8\\node_modules\\string.prototype.trimstart\\LICENSE"
  },
  "string_decoder@1.1.1": {
    "licenses": "MIT",
    "repository": "https://github.com/nodejs/string_decoder",
    "path": "E:\\Desktop\\Lab8\\node_modules\\string_decoder",
    "licenseFile": "E:\\Desktop\\Lab8\\node_modules\\string_decoder\\LICENSE"
  },
  "strip-ansi@4.0.0": {
    "licenses": "MIT",
    "repository": "https://github.com/chalk/strip-ansi",
    "publisher": "Sindre Sorhus",
    "email": "sindresorhus@gmail.com",
    "url": "sindresorhus.com",
    "path": "E:\\Desktop\\Lab8\\node_modules\\strip-ansi",
    "licenseFile": "E:\\Desktop\\Lab8\\node_modules\\strip-ansi\\license"
  },
  "strip-ansi@5.2.0": {
    "licenses": "MIT",
    "repository": "https://github.com/chalk/strip-ansi",
    "publisher": "Sindre Sorhus",
    "email": "sindresorhus@gmail.com",
    "url": "sindresorhus.com",
    "path": "E:\\Desktop\\Lab8\\node_modules\\cliui\\node_modules\\strip-ansi",
    "licenseFile": "E:\\Desktop\\Lab8\\node_modules\\cliui\\node_modules\\strip-ansi\\license"
  },
  "strip-json-comments@2.0.1": {
    "licenses": "MIT",
    "repository": "https://github.com/sindresorhus/strip-json-comments",
    "publisher": "Sindre Sorhus",
    "email": "sindresorhus@gmail.com",
    "url": "sindresorhus.com",
    "path": "E:\\Desktop\\Lab8\\node_modules\\strip-json-comments",
    "licenseFile": "E:\\Desktop\\Lab8\\node_modules\\strip-json-comments\\license"
  },
  "supports-color@5.5.0": {
    "licenses": "MIT",
    "repository": "https://github.com/chalk/supports-color",
    "publisher": "Sindre Sorhus",
    "email": "sindresorhus@gmail.com",
    "url": "sindresorhus.com",
    "path": "E:\\Desktop\\Lab8\\node_modules\\chalk\\node_modules\\supports-color",
    "licenseFile": "E:\\Desktop\\Lab8\\node_modules\\chalk\\node_modules\\supports-color\\license"
  },
  "supports-color@6.0.0": {
    "licenses": "MIT",
    "repository": "https://github.com/chalk/supports-color",
    "publisher": "Sindre Sorhus",
    "email": "sindresorhus@gmail.com",
    "url": "sindresorhus.com",
    "path": "E:\\Desktop\\Lab8\\node_modules\\supports-color",
    "licenseFile": "E:\\Desktop\\Lab8\\node_modules\\supports-color\\license"
  },
  "supports-preserve-symlinks-flag@1.0.0": {
    "licenses": "MIT",
    "repository": "https://github.com/inspect-js/node-supports-preserve-symlinks-flag",
    "publisher": "Jordan Harband",
    "email": "ljharb@gmail.com",
    "path": "E:\\Desktop\\Lab8\\node_modules\\supports-preserve-symlinks-flag",
    "licenseFile": "E:\\Desktop\\Lab8\\node_modules\\supports-preserve-symlinks-flag\\LICENSE"
  },
  "to-regex-range@5.0.1": {
    "licenses": "MIT",
    "repository": "https://github.com/micromatch/to-regex-range",
    "publisher": "Jon Schlinkert",
    "url": "https://github.com/jonschlinkert",
    "path": "E:\\Desktop\\Lab8\\node_modules\\to-regex-range",
    "licenseFile": "E:\\Desktop\\Lab8\\node_modules\\to-regex-range\\LICENSE"
  },
  "tough-cookie@2.5.0": {
    "licenses": "BSD-3-Clause",
    "repository": "https://github.com/salesforce/tough-cookie",
    "publisher": "Jeremy Stashewsky",
    "email": "jstash@gmail.com",
    "path": "E:\\Desktop\\Lab8\\node_modules\\tough-cookie",
    "licenseFile": "E:\\Desktop\\Lab8\\node_modules\\tough-cookie\\LICENSE"
  },
  "treeify@1.1.0": {
    "licenses": "MIT",
    "repository": "https://github.com/notatestuser/treeify",
    "publisher": "Luke Plaster",
    "email": "notatestuser@gmail.com",
    "path": "E:\\Desktop\\Lab8\\node_modules\\treeify",
    "licenseFile": "E:\\Desktop\\Lab8\\node_modules\\treeify\\LICENSE"
  },
  "tunnel-agent@0.6.0": {
    "licenses": "Apache-2.0",
    "repository": "https://github.com/mikeal/tunnel-agent",
    "publisher": "Mikeal Rogers",
    "email": "mikeal.rogers@gmail.com",
    "url": "http://www.futurealoof.com",
    "path": "E:\\Desktop\\Lab8\\node_modules\\tunnel-agent",
    "licenseFile": "E:\\Desktop\\Lab8\\node_modules\\tunnel-agent\\LICENSE"
  },
  "tweetnacl@0.14.5": {
    "licenses": "Unlicense",
    "repository": "https://github.com/dchest/tweetnacl-js",
    "publisher": "TweetNaCl-js contributors",
    "path": "E:\\Desktop\\Lab8\\node_modules\\tweetnacl",
    "licenseFile": "E:\\Desktop\\Lab8\\node_modules\\tweetnacl\\LICENSE"
  },
  "unbox-primitive@1.0.1": {
    "licenses": "MIT",
    "repository": "https://github.com/ljharb/unbox-primitive",
    "publisher": "Jordan Harband",
    "email": "ljharb@gmail.com",
    "path": "E:\\Desktop\\Lab8\\node_modules\\unbox-primitive",
    "licenseFile": "E:\\Desktop\\Lab8\\node_modules\\unbox-primitive\\LICENSE"
  },
  "uri-js@4.4.1": {
    "licenses": "BSD-2-Clause",
    "repository": "https://github.com/garycourt/uri-js",
    "publisher": "Gary Court",
    "email": "gary.court@gmail.com",
    "path": "E:\\Desktop\\Lab8\\node_modules\\uri-js",
    "licenseFile": "E:\\Desktop\\Lab8\\node_modules\\uri-js\\LICENSE"
  },
  "util-deprecate@1.0.2": {
    "licenses": "MIT",
    "repository": "https://github.com/TooTallNate/util-deprecate",
    "publisher": "Nathan Rajlich",
    "email": "nathan@tootallnate.net",
    "url": "http://n8.io/",
    "path": "E:\\Desktop\\Lab8\\node_modules\\util-deprecate",
    "licenseFile": "E:\\Desktop\\Lab8\\node_modules\\util-deprecate\\LICENSE"
  },
  "util-extend@1.0.3": {
    "licenses": "MIT",
    "repository": "https://github.com/isaacs/util-extend",
    "path": "E:\\Desktop\\Lab8\\node_modules\\util-extend",
    "licenseFile": "E:\\Desktop\\Lab8\\node_modules\\util-extend\\LICENSE"
  },
  "uuid@3.4.0": {
    "licenses": "MIT",
    "repository": "https://github.com/uuidjs/uuid",
    "path": "E:\\Desktop\\Lab8\\node_modules\\uuid",
    "licenseFile": "E:\\Desktop\\Lab8\\node_modules\\uuid\\LICENSE.md"
  },
  "validate-npm-package-license@3.0.4": {
    "licenses": "Apache-2.0",
    "repository": "https://github.com/kemitchell/validate-npm-package-license.js",
    "publisher": "Kyle E. Mitchell",
    "email": "kyle@kemitchell.com",
    "url": "https://kemitchell.com",
    "path": "E:\\Desktop\\Lab8\\node_modules\\validate-npm-package-license",
    "licenseFile": "E:\\Desktop\\Lab8\\node_modules\\validate-npm-package-license\\LICENSE"
  },
  "validator@13.0.0": {
    "licenses": "MIT",
    "repository": "https://github.com/chriso/validator.js",
    "publisher": "Chris O'Hara",
    "email": "cohara87@gmail.com",
    "path": "E:\\Desktop\\Lab8\\node_modules\\validator",
    "licenseFile": "E:\\Desktop\\Lab8\\node_modules\\validator\\LICENSE"
  },
  "verror@1.10.0": {
    "licenses": "MIT",
    "repository": "https://github.com/davepacheco/node-verror",
    "path": "E:\\Desktop\\Lab8\\node_modules\\verror",
    "licenseFile": "E:\\Desktop\\Lab8\\node_modules\\verror\\LICENSE"
  },
  "which-boxed-primitive@1.0.2": {
    "licenses": "MIT",
    "repository": "https://github.com/inspect-js/which-boxed-primitive",
    "publisher": "Jordan Harband",
    "email": "ljharb@gmail.com",
    "path": "E:\\Desktop\\Lab8\\node_modules\\which-boxed-primitive",
    "licenseFile": "E:\\Desktop\\Lab8\\node_modules\\which-boxed-primitive\\LICENSE"
  },
  "which-module@2.0.0": {
    "licenses": "ISC",
    "repository": "https://github.com/nexdrew/which-module",
    "publisher": "nexdrew",
    "path": "E:\\Desktop\\Lab8\\node_modules\\which-module",
    "licenseFile": "E:\\Desktop\\Lab8\\node_modules\\which-module\\LICENSE"
  },
  "which@1.3.1": {
    "licenses": "ISC",
    "repository": "https://github.com/isaacs/node-which",
    "publisher": "Isaac Z. Schlueter",
    "email": "i@izs.me",
    "url": "http://blog.izs.me",
    "path": "E:\\Desktop\\Lab8\\node_modules\\which",
    "licenseFile": "E:\\Desktop\\Lab8\\node_modules\\which\\LICENSE"
  },
  "wide-align@1.1.3": {
    "licenses": "ISC",
    "repository": "https://github.com/iarna/wide-align",
    "publisher": "Rebecca Turner",
    "email": "me@re-becca.org",
    "url": "http://re-becca.org/",
    "path": "E:\\Desktop\\Lab8\\node_modules\\wide-align",
    "licenseFile": "E:\\Desktop\\Lab8\\node_modules\\wide-align\\LICENSE"
  },
  "wrap-ansi@5.1.0": {
    "licenses": "MIT",
    "repository": "https://github.com/chalk/wrap-ansi",
    "publisher": "Sindre Sorhus",
    "email": "sindresorhus@gmail.com",
    "url": "sindresorhus.com",
    "path": "E:\\Desktop\\Lab8\\node_modules\\wrap-ansi",
    "licenseFile": "E:\\Desktop\\Lab8\\node_modules\\wrap-ansi\\license"
  },
  "wrappy@1.0.2": {
    "licenses": "ISC",
    "repository": "https://github.com/npm/wrappy",
    "publisher": "Isaac Z. Schlueter",
    "email": "i@izs.me",
    "url": "http://blog.izs.me/",
    "path": "E:\\Desktop\\Lab8\\node_modules\\wrappy",
    "licenseFile": "E:\\Desktop\\Lab8\\node_modules\\wrappy\\LICENSE"
  },
  "y18n@4.0.3": {
    "licenses": "ISC",
    "repository": "https://github.com/yargs/y18n",
    "publisher": "Ben Coe",
    "email": "ben@npmjs.com",
    "path": "E:\\Desktop\\Lab8\\node_modules\\y18n",
    "licenseFile": "E:\\Desktop\\Lab8\\node_modules\\y18n\\LICENSE"
  },
  "yargs-parser@13.1.2": {
    "licenses": "ISC",
    "repository": "https://github.com/yargs/yargs-parser",
    "publisher": "Ben Coe",
    "email": "ben@npmjs.com",
    "path": "E:\\Desktop\\Lab8\\node_modules\\yargs-parser",
    "licenseFile": "E:\\Desktop\\Lab8\\node_modules\\yargs-parser\\LICENSE.txt"
  },
  "yargs-unparser@1.6.0": {
    "licenses": "MIT",
    "repository": "https://github.com/yargs/yargs-unparser",
    "publisher": "Andr├⌐ Cruz",
    "email": "andre@moxy.studio",
    "path": "E:\\Desktop\\Lab8\\node_modules\\yargs-unparser",
    "licenseFile": "E:\\Desktop\\Lab8\\node_modules\\yargs-unparser\\LICENSE"
  },
  "yargs@13.3.2": {
    "licenses": "MIT",
    "repository": "https://github.com/yargs/yargs",
    "path": "E:\\Desktop\\Lab8\\node_modules\\yargs",
    "licenseFile": "E:\\Desktop\\Lab8\\node_modules\\yargs\\LICENSE"
  }
}

